%YAML 1.1
%TAG !u! tag:unity3d.com,2011:
--- !u!114 &11400000
MonoBehaviour:
  m_ObjectHideFlags: 0
  m_CorrespondingSourceObject: {fileID: 0}
  m_PrefabInstance: {fileID: 0}
  m_PrefabAsset: {fileID: 0}
  m_GameObject: {fileID: 0}
  m_Enabled: 1
  m_EditorHideFlags: 0
  m_Script: {fileID: 11500000, guid: 5083c871e35a8314abe62ae4cc3d8612, type: 3}
  m_Name: 4 Words
  m_EditorClassIdentifier: 
  emptyBlockLetterPrefab: {fileID: 1874454463454324, guid: 06a9d8e976fc193418978bb9e47aeb5d,
    type: 3}
  letterBlockPrefab: {fileID: 1352856126753164, guid: ae983079fe02a3f488deb3aea45c37b8,
    type: 3}
  verticalAxisDistance: 1.848
  horizontalAxisDistance: 1.704
  miniEmptyBlockPrefab: {fileID: 1235689049092974, guid: 5fee77716c66e6d4798039320d71e80d,
    type: 3}
  miniEmptyBlockDistance: 0.78
  miniOutsideSprite: {fileID: 21300000, guid: 6146c1ca4355c5942ab44169f67e7a41, type: 3}
  miniInsideSprite: {fileID: 21300000, guid: 6146c1ca4355c5942ab44169f67e7a41, type: 3}
  orderOfLetters:
  - coordinate_X: 0.5
    coordinate_Y: 0
  - coordinate_X: 0.5
    coordinate_Y: 1
  - coordinate_X: -0.5
    coordinate_Y: 0.5
  - coordinate_X: -0.5
    coordinate_Y: -0.5
  listOfWords:
  - content: LION
    letters:
    - alphabet: 14
      sprite: {fileID: 21300006, guid: cd9216ed820f4f718377b74c38e4e2fa, type: 3}
    - alphabet: 8
      sprite: {fileID: 21300052, guid: cd9216ed820f4f718377b74c38e4e2fa, type: 3}
    - alphabet: 11
      sprite: {fileID: 21300048, guid: cd9216ed820f4f718377b74c38e4e2fa, type: 3}
    - alphabet: 13
      sprite: {fileID: 21300024, guid: cd9216ed820f4f718377b74c38e4e2fa, type: 3}
  - content: BEAR
    letters:
    - alphabet: 0
      sprite: {fileID: 21300020, guid: cd9216ed820f4f718377b74c38e4e2fa, type: 3}
    - alphabet: 17
      sprite: {fileID: 21300030, guid: cd9216ed820f4f718377b74c38e4e2fa, type: 3}
    - alphabet: 1
      sprite: {fileID: 21300040, guid: cd9216ed820f4f718377b74c38e4e2fa, type: 3}
    - alphabet: 4
      sprite: {fileID: 21300044, guid: cd9216ed820f4f718377b74c38e4e2fa, type: 3}
  - content: JAZZ
    letters:
    - alphabet: 0
      sprite: {fileID: 21300020, guid: cd9216ed820f4f718377b74c38e4e2fa, type: 3}
    - alphabet: 9
      sprite: {fileID: 21300000, guid: cd9216ed820f4f718377b74c38e4e2fa, type: 3}
    - alphabet: 25
      sprite: {fileID: 21300050, guid: cd9216ed820f4f718377b74c38e4e2fa, type: 3}
    - alphabet: 25
      sprite: {fileID: 21300050, guid: cd9216ed820f4f718377b74c38e4e2fa, type: 3}
  - content: ROCK
    letters:
    - alphabet: 2
      sprite: {fileID: 21300008, guid: cd9216ed820f4f718377b74c38e4e2fa, type: 3}
    - alphabet: 14
      sprite: {fileID: 21300006, guid: cd9216ed820f4f718377b74c38e4e2fa, type: 3}
    - alphabet: 17
      sprite: {fileID: 21300030, guid: cd9216ed820f4f718377b74c38e4e2fa, type: 3}
    - alphabet: 10
      sprite: {fileID: 21300022, guid: cd9216ed820f4f718377b74c38e4e2fa, type: 3}
  - content: SING
    letters:
    - alphabet: 13
      sprite: {fileID: 21300024, guid: cd9216ed820f4f718377b74c38e4e2fa, type: 3}
    - alphabet: 18
      sprite: {fileID: 21300010, guid: cd9216ed820f4f718377b74c38e4e2fa, type: 3}
    - alphabet: 8
      sprite: {fileID: 21300052, guid: cd9216ed820f4f718377b74c38e4e2fa, type: 3}
    - alphabet: 6
      sprite: {fileID: 21300004, guid: cd9216ed820f4f718377b74c38e4e2fa, type: 3}
  - content: DRUM
    letters:
    - alphabet: 20
      sprite: {fileID: 21300014, guid: cd9216ed820f4f718377b74c38e4e2fa, type: 3}
    - alphabet: 12
      sprite: {fileID: 21300018, guid: cd9216ed820f4f718377b74c38e4e2fa, type: 3}
    - alphabet: 17
      sprite: {fileID: 21300030, guid: cd9216ed820f4f718377b74c38e4e2fa, type: 3}
    - alphabet: 3
      sprite: {fileID: 21300026, guid: cd9216ed820f4f718377b74c38e4e2fa, type: 3}
  - content: BAND
    letters:
    - alphabet: 1
      sprite: {fileID: 21300040, guid: cd9216ed820f4f718377b74c38e4e2fa, type: 3}
    - alphabet: 3
      sprite: {fileID: 21300026, guid: cd9216ed820f4f718377b74c38e4e2fa, type: 3}
    - alphabet: 13
      sprite: {fileID: 21300024, guid: cd9216ed820f4f718377b74c38e4e2fa, type: 3}
    - alphabet: 0
      sprite: {fileID: 21300020, guid: cd9216ed820f4f718377b74c38e4e2fa, type: 3}
  - content: BEAN
    letters:
    - alphabet: 1
      sprite: {fileID: 21300040, guid: cd9216ed820f4f718377b74c38e4e2fa, type: 3}
    - alphabet: 13
      sprite: {fileID: 21300024, guid: cd9216ed820f4f718377b74c38e4e2fa, type: 3}
    - alphabet: 0
      sprite: {fileID: 21300020, guid: cd9216ed820f4f718377b74c38e4e2fa, type: 3}
    - alphabet: 4
      sprite: {fileID: 21300044, guid: cd9216ed820f4f718377b74c38e4e2fa, type: 3}
  - content: WINE
    letters:
    - alphabet: 13
      sprite: {fileID: 21300024, guid: cd9216ed820f4f718377b74c38e4e2fa, type: 3}
    - alphabet: 22
      sprite: {fileID: 21300016, guid: cd9216ed820f4f718377b74c38e4e2fa, type: 3}
    - alphabet: 8
      sprite: {fileID: 21300052, guid: cd9216ed820f4f718377b74c38e4e2fa, type: 3}
    - alphabet: 4
      sprite: {fileID: 21300044, guid: cd9216ed820f4f718377b74c38e4e2fa, type: 3}
  - content: CAKE
    letters:
    - alphabet: 0
      sprite: {fileID: 21300020, guid: cd9216ed820f4f718377b74c38e4e2fa, type: 3}
    - alphabet: 2
      sprite: {fileID: 21300008, guid: cd9216ed820f4f718377b74c38e4e2fa, type: 3}
    - alphabet: 10
      sprite: {fileID: 21300022, guid: cd9216ed820f4f718377b74c38e4e2fa, type: 3}
    - alphabet: 4
      sprite: {fileID: 21300044, guid: cd9216ed820f4f718377b74c38e4e2fa, type: 3}
  - content: RICE
    letters:
    - alphabet: 8
      sprite: {fileID: 21300052, guid: cd9216ed820f4f718377b74c38e4e2fa, type: 3}
    - alphabet: 17
      sprite: {fileID: 21300030, guid: cd9216ed820f4f718377b74c38e4e2fa, type: 3}
    - alphabet: 2
      sprite: {fileID: 21300008, guid: cd9216ed820f4f718377b74c38e4e2fa, type: 3}
    - alphabet: 4
      sprite: {fileID: 21300044, guid: cd9216ed820f4f718377b74c38e4e2fa, type: 3}
  - content: DOOR
    letters:
    - alphabet: 14
      sprite: {fileID: 21300006, guid: cd9216ed820f4f718377b74c38e4e2fa, type: 3}
    - alphabet: 17
      sprite: {fileID: 21300030, guid: cd9216ed820f4f718377b74c38e4e2fa, type: 3}
    - alphabet: 14
      sprite: {fileID: 21300006, guid: cd9216ed820f4f718377b74c38e4e2fa, type: 3}
    - alphabet: 3
      sprite: {fileID: 21300026, guid: cd9216ed820f4f718377b74c38e4e2fa, type: 3}
  - content: LAMP
    letters:
    - alphabet: 11
      sprite: {fileID: 21300048, guid: cd9216ed820f4f718377b74c38e4e2fa, type: 3}
    - alphabet: 0
      sprite: {fileID: 21300020, guid: cd9216ed820f4f718377b74c38e4e2fa, type: 3}
    - alphabet: 12
      sprite: {fileID: 21300018, guid: cd9216ed820f4f718377b74c38e4e2fa, type: 3}
    - alphabet: 15
      sprite: {fileID: 21300038, guid: cd9216ed820f4f718377b74c38e4e2fa, type: 3}
  - content: GOLF
    letters:
    - alphabet: 11
      sprite: {fileID: 21300048, guid: cd9216ed820f4f718377b74c38e4e2fa, type: 3}
    - alphabet: 5
      sprite: {fileID: 21300046, guid: cd9216ed820f4f718377b74c38e4e2fa, type: 3}
    - alphabet: 14
      sprite: {fileID: 21300006, guid: cd9216ed820f4f718377b74c38e4e2fa, type: 3}
    - alphabet: 6
      sprite: {fileID: 21300004, guid: cd9216ed820f4f718377b74c38e4e2fa, type: 3}
  - content: BIKE
    letters:
    - alphabet: 1
      sprite: {fileID: 21300040, guid: cd9216ed820f4f718377b74c38e4e2fa, type: 3}
    - alphabet: 8
      sprite: {fileID: 21300052, guid: cd9216ed820f4f718377b74c38e4e2fa, type: 3}
    - alphabet: 10
      sprite: {fileID: 21300022, guid: cd9216ed820f4f718377b74c38e4e2fa, type: 3}
    - alphabet: 4
      sprite: {fileID: 21300044, guid: cd9216ed820f4f718377b74c38e4e2fa, type: 3}
  - content: SAND
    letters:
    - alphabet: 18
      sprite: {fileID: 21300010, guid: cd9216ed820f4f718377b74c38e4e2fa, type: 3}
    - alphabet: 3
      sprite: {fileID: 21300026, guid: cd9216ed820f4f718377b74c38e4e2fa, type: 3}
    - alphabet: 13
      sprite: {fileID: 21300024, guid: cd9216ed820f4f718377b74c38e4e2fa, type: 3}
    - alphabet: 0
      sprite: {fileID: 21300020, guid: cd9216ed820f4f718377b74c38e4e2fa, type: 3}
  - content: WAVE
    letters:
    - alphabet: 0
      sprite: {fileID: 21300020, guid: cd9216ed820f4f718377b74c38e4e2fa, type: 3}
    - alphabet: 21
      sprite: {fileID: 21300032, guid: cd9216ed820f4f718377b74c38e4e2fa, type: 3}
    - alphabet: 4
      sprite: {fileID: 21300044, guid: cd9216ed820f4f718377b74c38e4e2fa, type: 3}
    - alphabet: 22
      sprite: {fileID: 21300016, guid: cd9216ed820f4f718377b74c38e4e2fa, type: 3}
  - content: DEEP
    letters:
    - alphabet: 4
      sprite: {fileID: 21300044, guid: cd9216ed820f4f718377b74c38e4e2fa, type: 3}
    - alphabet: 4
      sprite: {fileID: 21300044, guid: cd9216ed820f4f718377b74c38e4e2fa, type: 3}
    - alphabet: 3
      sprite: {fileID: 21300026, guid: cd9216ed820f4f718377b74c38e4e2fa, type: 3}
    - alphabet: 15
      sprite: {fileID: 21300038, guid: cd9216ed820f4f718377b74c38e4e2fa, type: 3}
  - content: CORN
    letters:
    - alphabet: 2
      sprite: {fileID: 21300008, guid: cd9216ed820f4f718377b74c38e4e2fa, type: 3}
    - alphabet: 14
      sprite: {fileID: 21300006, guid: cd9216ed820f4f718377b74c38e4e2fa, type: 3}
    - alphabet: 17
      sprite: {fileID: 21300030, guid: cd9216ed820f4f718377b74c38e4e2fa, type: 3}
    - alphabet: 13
      sprite: {fileID: 21300024, guid: cd9216ed820f4f718377b74c38e4e2fa, type: 3}
  - content: BUSH
    letters:
    - alphabet: 1
      sprite: {fileID: 21300040, guid: cd9216ed820f4f718377b74c38e4e2fa, type: 3}
    - alphabet: 20
      sprite: {fileID: 21300014, guid: cd9216ed820f4f718377b74c38e4e2fa, type: 3}
    - alphabet: 18
      sprite: {fileID: 21300010, guid: cd9216ed820f4f718377b74c38e4e2fa, type: 3}
    - alphabet: 7
      sprite: {fileID: 21300028, guid: cd9216ed820f4f718377b74c38e4e2fa, type: 3}
  - content: TREE
    letters:
    - alphabet: 4
      sprite: {fileID: 21300044, guid: cd9216ed820f4f718377b74c38e4e2fa, type: 3}
    - alphabet: 4
      sprite: {fileID: 21300044, guid: cd9216ed820f4f718377b74c38e4e2fa, type: 3}
    - alphabet: 17
      sprite: {fileID: 21300030, guid: cd9216ed820f4f718377b74c38e4e2fa, type: 3}
    - alphabet: 19
      sprite: {fileID: 21300042, guid: cd9216ed820f4f718377b74c38e4e2fa, type: 3}
  - content: FERN
    letters:
    - alphabet: 4
      sprite: {fileID: 21300044, guid: cd9216ed820f4f718377b74c38e4e2fa, type: 3}
    - alphabet: 5
      sprite: {fileID: 21300046, guid: cd9216ed820f4f718377b74c38e4e2fa, type: 3}
    - alphabet: 17
      sprite: {fileID: 21300030, guid: cd9216ed820f4f718377b74c38e4e2fa, type: 3}
    - alphabet: 13
      sprite: {fileID: 21300024, guid: cd9216ed820f4f718377b74c38e4e2fa, type: 3}
  - content: ROSE
    letters:
    - alphabet: 18
      sprite: {fileID: 21300010, guid: cd9216ed820f4f718377b74c38e4e2fa, type: 3}
    - alphabet: 4
      sprite: {fileID: 21300044, guid: cd9216ed820f4f718377b74c38e4e2fa, type: 3}
    - alphabet: 14
      sprite: {fileID: 21300006, guid: cd9216ed820f4f718377b74c38e4e2fa, type: 3}
    - alphabet: 17
      sprite: {fileID: 21300030, guid: cd9216ed820f4f718377b74c38e4e2fa, type: 3}
  - content: IRIS
    letters:
    - alphabet: 8
      sprite: {fileID: 21300052, guid: cd9216ed820f4f718377b74c38e4e2fa, type: 3}
    - alphabet: 8
      sprite: {fileID: 21300052, guid: cd9216ed820f4f718377b74c38e4e2fa, type: 3}
    - alphabet: 17
      sprite: {fileID: 21300030, guid: cd9216ed820f4f718377b74c38e4e2fa, type: 3}
    - alphabet: 18
      sprite: {fileID: 21300010, guid: cd9216ed820f4f718377b74c38e4e2fa, type: 3}
  - content: CROW
    letters:
    - alphabet: 17
      sprite: {fileID: 21300030, guid: cd9216ed820f4f718377b74c38e4e2fa, type: 3}
    - alphabet: 14
      sprite: {fileID: 21300006, guid: cd9216ed820f4f718377b74c38e4e2fa, type: 3}
    - alphabet: 22
      sprite: {fileID: 21300016, guid: cd9216ed820f4f718377b74c38e4e2fa, type: 3}
    - alphabet: 2
      sprite: {fileID: 21300008, guid: cd9216ed820f4f718377b74c38e4e2fa, type: 3}
  - content: WARP
    letters:
    - alphabet: 17
      sprite: {fileID: 21300030, guid: cd9216ed820f4f718377b74c38e4e2fa, type: 3}
    - alphabet: 15
      sprite: {fileID: 21300038, guid: cd9216ed820f4f718377b74c38e4e2fa, type: 3}
    - alphabet: 22
      sprite: {fileID: 21300016, guid: cd9216ed820f4f718377b74c38e4e2fa, type: 3}
    - alphabet: 0
      sprite: {fileID: 21300020, guid: cd9216ed820f4f718377b74c38e4e2fa, type: 3}
  - content: DUST
    letters:
    - alphabet: 18
      sprite: {fileID: 21300010, guid: cd9216ed820f4f718377b74c38e4e2fa, type: 3}
    - alphabet: 19
      sprite: {fileID: 21300042, guid: cd9216ed820f4f718377b74c38e4e2fa, type: 3}
    - alphabet: 20
      sprite: {fileID: 21300014, guid: cd9216ed820f4f718377b74c38e4e2fa, type: 3}
    - alphabet: 3
      sprite: {fileID: 21300026, guid: cd9216ed820f4f718377b74c38e4e2fa, type: 3}
  - content: MOON
    letters:
    - alphabet: 13
      sprite: {fileID: 21300024, guid: cd9216ed820f4f718377b74c38e4e2fa, type: 3}
    - alphabet: 14
      sprite: {fileID: 21300006, guid: cd9216ed820f4f718377b74c38e4e2fa, type: 3}
    - alphabet: 14
      sprite: {fileID: 21300006, guid: cd9216ed820f4f718377b74c38e4e2fa, type: 3}
    - alphabet: 12
      sprite: {fileID: 21300018, guid: cd9216ed820f4f718377b74c38e4e2fa, type: 3}
  - content: NASA
    letters:
    - alphabet: 0
      sprite: {fileID: 21300020, guid: cd9216ed820f4f718377b74c38e4e2fa, type: 3}
    - alphabet: 13
      sprite: {fileID: 21300024, guid: cd9216ed820f4f718377b74c38e4e2fa, type: 3}
    - alphabet: 0
      sprite: {fileID: 21300020, guid: cd9216ed820f4f718377b74c38e4e2fa, type: 3}
    - alphabet: 18
      sprite: {fileID: 21300010, guid: cd9216ed820f4f718377b74c38e4e2fa, type: 3}
  - content: TANK
    letters:
    - alphabet: 19
      sprite: {fileID: 21300042, guid: cd9216ed820f4f718377b74c38e4e2fa, type: 3}
    - alphabet: 10
      sprite: {fileID: 21300022, guid: cd9216ed820f4f718377b74c38e4e2fa, type: 3}
    - alphabet: 13
      sprite: {fileID: 21300024, guid: cd9216ed820f4f718377b74c38e4e2fa, type: 3}
    - alphabet: 0
      sprite: {fileID: 21300020, guid: cd9216ed820f4f718377b74c38e4e2fa, type: 3}
  - content: BOMB
    letters:
    - alphabet: 14
      sprite: {fileID: 21300006, guid: cd9216ed820f4f718377b74c38e4e2fa, type: 3}
    - alphabet: 12
      sprite: {fileID: 21300018, guid: cd9216ed820f4f718377b74c38e4e2fa, type: 3}
    - alphabet: 1
      sprite: {fileID: 21300040, guid: cd9216ed820f4f718377b74c38e4e2fa, type: 3}
    - alphabet: 1
      sprite: {fileID: 21300040, guid: cd9216ed820f4f718377b74c38e4e2fa, type: 3}
  - content: MARS
    letters:
    - alphabet: 17
      sprite: {fileID: 21300030, guid: cd9216ed820f4f718377b74c38e4e2fa, type: 3}
    - alphabet: 12
      sprite: {fileID: 21300018, guid: cd9216ed820f4f718377b74c38e4e2fa, type: 3}
    - alphabet: 0
      sprite: {fileID: 21300020, guid: cd9216ed820f4f718377b74c38e4e2fa, type: 3}
    - alphabet: 18
      sprite: {fileID: 21300010, guid: cd9216ed820f4f718377b74c38e4e2fa, type: 3}
  - content: TALE
    letters:
    - alphabet: 0
      sprite: {fileID: 21300020, guid: cd9216ed820f4f718377b74c38e4e2fa, type: 3}
    - alphabet: 4
      sprite: {fileID: 21300044, guid: cd9216ed820f4f718377b74c38e4e2fa, type: 3}
    - alphabet: 11
      sprite: {fileID: 21300048, guid: cd9216ed820f4f718377b74c38e4e2fa, type: 3}
    - alphabet: 19
      sprite: {fileID: 21300042, guid: cd9216ed820f4f718377b74c38e4e2fa, type: 3}
  - content: FISH
    letters:
    - alphabet: 5
      sprite: {fileID: 21300046, guid: cd9216ed820f4f718377b74c38e4e2fa, type: 3}
    - alphabet: 7
      sprite: {fileID: 21300028, guid: cd9216ed820f4f718377b74c38e4e2fa, type: 3}
    - alphabet: 18
      sprite: {fileID: 21300010, guid: cd9216ed820f4f718377b74c38e4e2fa, type: 3}
    - alphabet: 8
      sprite: {fileID: 21300052, guid: cd9216ed820f4f718377b74c38e4e2fa, type: 3}
  - content: JUON
    letters:
    - alphabet: 20
      sprite: {fileID: 21300014, guid: cd9216ed820f4f718377b74c38e4e2fa, type: 3}
    - alphabet: 9
      sprite: {fileID: 21300000, guid: cd9216ed820f4f718377b74c38e4e2fa, type: 3}
    - alphabet: 14
      sprite: {fileID: 21300006, guid: cd9216ed820f4f718377b74c38e4e2fa, type: 3}
    - alphabet: 13
      sprite: {fileID: 21300024, guid: cd9216ed820f4f718377b74c38e4e2fa, type: 3}
  - content: BOOK
    letters:
    - alphabet: 14
      sprite: {fileID: 21300006, guid: cd9216ed820f4f718377b74c38e4e2fa, type: 3}
    - alphabet: 1
      sprite: {fileID: 21300040, guid: cd9216ed820f4f718377b74c38e4e2fa, type: 3}
    - alphabet: 14
      sprite: {fileID: 21300006, guid: cd9216ed820f4f718377b74c38e4e2fa, type: 3}
    - alphabet: 10
      sprite: {fileID: 21300022, guid: cd9216ed820f4f718377b74c38e4e2fa, type: 3}
  - content: LUCA
    letters:
    - alphabet: 0
      sprite: {fileID: 21300020, guid: cd9216ed820f4f718377b74c38e4e2fa, type: 3}
    - alphabet: 11
      sprite: {fileID: 21300048, guid: cd9216ed820f4f718377b74c38e4e2fa, type: 3}
    - alphabet: 20
      sprite: {fileID: 21300014, guid: cd9216ed820f4f718377b74c38e4e2fa, type: 3}
    - alphabet: 2
      sprite: {fileID: 21300008, guid: cd9216ed820f4f718377b74c38e4e2fa, type: 3}
  - content: MAMA
    letters:
    - alphabet: 12
      sprite: {fileID: 21300018, guid: cd9216ed820f4f718377b74c38e4e2fa, type: 3}
    - alphabet: 0
      sprite: {fileID: 21300020, guid: cd9216ed820f4f718377b74c38e4e2fa, type: 3}
    - alphabet: 0
      sprite: {fileID: 21300020, guid: cd9216ed820f4f718377b74c38e4e2fa, type: 3}
    - alphabet: 12
      sprite: {fileID: 21300018, guid: cd9216ed820f4f718377b74c38e4e2fa, type: 3}
  - content: HULK
    letters:
    - alphabet: 11
      sprite: {fileID: 21300048, guid: cd9216ed820f4f718377b74c38e4e2fa, type: 3}
    - alphabet: 10
      sprite: {fileID: 21300022, guid: cd9216ed820f4f718377b74c38e4e2fa, type: 3}
    - alphabet: 7
      sprite: {fileID: 21300028, guid: cd9216ed820f4f718377b74c38e4e2fa, type: 3}
    - alphabet: 20
      sprite: {fileID: 21300014, guid: cd9216ed820f4f718377b74c38e4e2fa, type: 3}
  - content: JUMP
    letters:
    - alphabet: 12
      sprite: {fileID: 21300018, guid: cd9216ed820f4f718377b74c38e4e2fa, type: 3}
    - alphabet: 20
      sprite: {fileID: 21300014, guid: cd9216ed820f4f718377b74c38e4e2fa, type: 3}
    - alphabet: 9
      sprite: {fileID: 21300000, guid: cd9216ed820f4f718377b74c38e4e2fa, type: 3}
    - alphabet: 15
      sprite: {fileID: 21300038, guid: cd9216ed820f4f718377b74c38e4e2fa, type: 3}
  - content: FEAR
    letters:
    - alphabet: 0
      sprite: {fileID: 21300020, guid: cd9216ed820f4f718377b74c38e4e2fa, type: 3}
    - alphabet: 17
      sprite: {fileID: 21300030, guid: cd9216ed820f4f718377b74c38e4e2fa, type: 3}
    - alphabet: 4
      sprite: {fileID: 21300044, guid: cd9216ed820f4f718377b74c38e4e2fa, type: 3}
    - alphabet: 5
      sprite: {fileID: 21300046, guid: cd9216ed820f4f718377b74c38e4e2fa, type: 3}
  - content: RUSH
    letters:
    - alphabet: 18
      sprite: {fileID: 21300010, guid: cd9216ed820f4f718377b74c38e4e2fa, type: 3}
    - alphabet: 7
      sprite: {fileID: 21300028, guid: cd9216ed820f4f718377b74c38e4e2fa, type: 3}
    - alphabet: 17
      sprite: {fileID: 21300030, guid: cd9216ed820f4f718377b74c38e4e2fa, type: 3}
    - alphabet: 20
      sprite: {fileID: 21300014, guid: cd9216ed820f4f718377b74c38e4e2fa, type: 3}
  - content: LOVE
    letters:
    - alphabet: 21
      sprite: {fileID: 21300032, guid: cd9216ed820f4f718377b74c38e4e2fa, type: 3}
    - alphabet: 14
      sprite: {fileID: 21300006, guid: cd9216ed820f4f718377b74c38e4e2fa, type: 3}
    - alphabet: 11
      sprite: {fileID: 21300048, guid: cd9216ed820f4f718377b74c38e4e2fa, type: 3}
    - alphabet: 4
      sprite: {fileID: 21300044, guid: cd9216ed820f4f718377b74c38e4e2fa, type: 3}
  - content: LIFE
    letters:
    - alphabet: 8
      sprite: {fileID: 21300052, guid: cd9216ed820f4f718377b74c38e4e2fa, type: 3}
    - alphabet: 4
      sprite: {fileID: 21300044, guid: cd9216ed820f4f718377b74c38e4e2fa, type: 3}
    - alphabet: 5
      sprite: {fileID: 21300046, guid: cd9216ed820f4f718377b74c38e4e2fa, type: 3}
    - alphabet: 11
      sprite: {fileID: 21300048, guid: cd9216ed820f4f718377b74c38e4e2fa, type: 3}
  - content: PLOT
    letters:
    - alphabet: 11
      sprite: {fileID: 21300048, guid: cd9216ed820f4f718377b74c38e4e2fa, type: 3}
    - alphabet: 19
      sprite: {fileID: 21300042, guid: cd9216ed820f4f718377b74c38e4e2fa, type: 3}
    - alphabet: 14
      sprite: {fileID: 21300006, guid: cd9216ed820f4f718377b74c38e4e2fa, type: 3}
    - alphabet: 15
      sprite: {fileID: 21300038, guid: cd9216ed820f4f718377b74c38e4e2fa, type: 3}
  - content: OKRA
    letters:
    - alphabet: 14
      sprite: {fileID: 21300006, guid: cd9216ed820f4f718377b74c38e4e2fa, type: 3}
    - alphabet: 10
      sprite: {fileID: 21300022, guid: cd9216ed820f4f718377b74c38e4e2fa, type: 3}
    - alphabet: 17
      sprite: {fileID: 21300030, guid: cd9216ed820f4f718377b74c38e4e2fa, type: 3}
    - alphabet: 0
      sprite: {fileID: 21300020, guid: cd9216ed820f4f718377b74c38e4e2fa, type: 3}
  - content: PEAS
    letters:
    - alphabet: 15
      sprite: {fileID: 21300038, guid: cd9216ed820f4f718377b74c38e4e2fa, type: 3}
    - alphabet: 18
      sprite: {fileID: 21300010, guid: cd9216ed820f4f718377b74c38e4e2fa, type: 3}
    - alphabet: 0
      sprite: {fileID: 21300020, guid: cd9216ed820f4f718377b74c38e4e2fa, type: 3}
    - alphabet: 4
      sprite: {fileID: 21300044, guid: cd9216ed820f4f718377b74c38e4e2fa, type: 3}
  - content: LEEK
    letters:
    - alphabet: 11
      sprite: {fileID: 21300048, guid: cd9216ed820f4f718377b74c38e4e2fa, type: 3}
    - alphabet: 4
      sprite: {fileID: 21300044, guid: cd9216ed820f4f718377b74c38e4e2fa, type: 3}
    - alphabet: 4
      sprite: {fileID: 21300044, guid: cd9216ed820f4f718377b74c38e4e2fa, type: 3}
    - alphabet: 10
      sprite: {fileID: 21300022, guid: cd9216ed820f4f718377b74c38e4e2fa, type: 3}
  - content: KILL
    letters:
    - alphabet: 8
      sprite: {fileID: 21300052, guid: cd9216ed820f4f718377b74c38e4e2fa, type: 3}
    - alphabet: 11
      sprite: {fileID: 21300048, guid: cd9216ed820f4f718377b74c38e4e2fa, type: 3}
    - alphabet: 11
      sprite: {fileID: 21300048, guid: cd9216ed820f4f718377b74c38e4e2fa, type: 3}
    - alphabet: 10
      sprite: {fileID: 21300022, guid: cd9216ed820f4f718377b74c38e4e2fa, type: 3}
  - content: FAST
    letters:
    - alphabet: 0
      sprite: {fileID: 21300020, guid: cd9216ed820f4f718377b74c38e4e2fa, type: 3}
    - alphabet: 5
      sprite: {fileID: 21300046, guid: cd9216ed820f4f718377b74c38e4e2fa, type: 3}
    - alphabet: 19
      sprite: {fileID: 21300042, guid: cd9216ed820f4f718377b74c38e4e2fa, type: 3}
    - alphabet: 18
      sprite: {fileID: 21300010, guid: cd9216ed820f4f718377b74c38e4e2fa, type: 3}
  - content: FEAR
    letters:
    - alphabet: 0
      sprite: {fileID: 21300020, guid: cd9216ed820f4f718377b74c38e4e2fa, type: 3}
    - alphabet: 4
      sprite: {fileID: 21300044, guid: cd9216ed820f4f718377b74c38e4e2fa, type: 3}
    - alphabet: 5
      sprite: {fileID: 21300046, guid: cd9216ed820f4f718377b74c38e4e2fa, type: 3}
    - alphabet: 17
      sprite: {fileID: 21300030, guid: cd9216ed820f4f718377b74c38e4e2fa, type: 3}
  - content: TUNA
    letters:
    - alphabet: 20
      sprite: {fileID: 21300014, guid: cd9216ed820f4f718377b74c38e4e2fa, type: 3}
    - alphabet: 19
      sprite: {fileID: 21300042, guid: cd9216ed820f4f718377b74c38e4e2fa, type: 3}
    - alphabet: 0
      sprite: {fileID: 21300020, guid: cd9216ed820f4f718377b74c38e4e2fa, type: 3}
    - alphabet: 13
      sprite: {fileID: 21300024, guid: cd9216ed820f4f718377b74c38e4e2fa, type: 3}
  - content: PIKE
    letters:
    - alphabet: 10
      sprite: {fileID: 21300022, guid: cd9216ed820f4f718377b74c38e4e2fa, type: 3}
    - alphabet: 8
      sprite: {fileID: 21300052, guid: cd9216ed820f4f718377b74c38e4e2fa, type: 3}
    - alphabet: 15
      sprite: {fileID: 21300038, guid: cd9216ed820f4f718377b74c38e4e2fa, type: 3}
    - alphabet: 4
      sprite: {fileID: 21300044, guid: cd9216ed820f4f718377b74c38e4e2fa, type: 3}
  - content: SCAD
    letters:
    - alphabet: 2
      sprite: {fileID: 21300008, guid: cd9216ed820f4f718377b74c38e4e2fa, type: 3}
    - alphabet: 3
      sprite: {fileID: 21300026, guid: cd9216ed820f4f718377b74c38e4e2fa, type: 3}
    - alphabet: 0
      sprite: {fileID: 21300020, guid: cd9216ed820f4f718377b74c38e4e2fa, type: 3}
    - alphabet: 18
      sprite: {fileID: 21300010, guid: cd9216ed820f4f718377b74c38e4e2fa, type: 3}
  - content: LOOK
    letters:
    - alphabet: 14
      sprite: {fileID: 21300006, guid: cd9216ed820f4f718377b74c38e4e2fa, type: 3}
    - alphabet: 10
      sprite: {fileID: 21300022, guid: cd9216ed820f4f718377b74c38e4e2fa, type: 3}
    - alphabet: 14
      sprite: {fileID: 21300006, guid: cd9216ed820f4f718377b74c38e4e2fa, type: 3}
    - alphabet: 11
      sprite: {fileID: 21300048, guid: cd9216ed820f4f718377b74c38e4e2fa, type: 3}
  - content: COPY
    letters:
    - alphabet: 14
      sprite: {fileID: 21300006, guid: cd9216ed820f4f718377b74c38e4e2fa, type: 3}
    - alphabet: 2
      sprite: {fileID: 21300008, guid: cd9216ed820f4f718377b74c38e4e2fa, type: 3}
    - alphabet: 24
      sprite: {fileID: 21300036, guid: cd9216ed820f4f718377b74c38e4e2fa, type: 3}
    - alphabet: 15
      sprite: {fileID: 21300038, guid: cd9216ed820f4f718377b74c38e4e2fa, type: 3}
  - content: GOOD
    letters:
    - alphabet: 6
      sprite: {fileID: 21300004, guid: cd9216ed820f4f718377b74c38e4e2fa, type: 3}
    - alphabet: 3
      sprite: {fileID: 21300026, guid: cd9216ed820f4f718377b74c38e4e2fa, type: 3}
    - alphabet: 14
      sprite: {fileID: 21300006, guid: cd9216ed820f4f718377b74c38e4e2fa, type: 3}
    - alphabet: 14
      sprite: {fileID: 21300006, guid: cd9216ed820f4f718377b74c38e4e2fa, type: 3}
  - content: MOOD
    letters:
    - alphabet: 12
      sprite: {fileID: 21300018, guid: cd9216ed820f4f718377b74c38e4e2fa, type: 3}
    - alphabet: 14
      sprite: {fileID: 21300006, guid: cd9216ed820f4f718377b74c38e4e2fa, type: 3}
    - alphabet: 14
      sprite: {fileID: 21300006, guid: cd9216ed820f4f718377b74c38e4e2fa, type: 3}
    - alphabet: 3
      sprite: {fileID: 21300026, guid: cd9216ed820f4f718377b74c38e4e2fa, type: 3}
  - content: LOST
    letters:
    - alphabet: 14
      sprite: {fileID: 21300006, guid: cd9216ed820f4f718377b74c38e4e2fa, type: 3}
    - alphabet: 19
      sprite: {fileID: 21300042, guid: cd9216ed820f4f718377b74c38e4e2fa, type: 3}
    - alphabet: 18
      sprite: {fileID: 21300010, guid: cd9216ed820f4f718377b74c38e4e2fa, type: 3}
    - alphabet: 11
      sprite: {fileID: 21300048, guid: cd9216ed820f4f718377b74c38e4e2fa, type: 3}
  - content: SODA
    letters:
    - alphabet: 3
      sprite: {fileID: 21300026, guid: cd9216ed820f4f718377b74c38e4e2fa, type: 3}
    - alphabet: 18
      sprite: {fileID: 21300010, guid: cd9216ed820f4f718377b74c38e4e2fa, type: 3}
    - alphabet: 14
      sprite: {fileID: 21300006, guid: cd9216ed820f4f718377b74c38e4e2fa, type: 3}
    - alphabet: 0
      sprite: {fileID: 21300020, guid: cd9216ed820f4f718377b74c38e4e2fa, type: 3}
  - content: MILK
    letters:
    - alphabet: 11
      sprite: {fileID: 21300048, guid: cd9216ed820f4f718377b74c38e4e2fa, type: 3}
    - alphabet: 8
      sprite: {fileID: 21300052, guid: cd9216ed820f4f718377b74c38e4e2fa, type: 3}
    - alphabet: 12
      sprite: {fileID: 21300018, guid: cd9216ed820f4f718377b74c38e4e2fa, type: 3}
    - alphabet: 10
      sprite: {fileID: 21300022, guid: cd9216ed820f4f718377b74c38e4e2fa, type: 3}
  - content: COLD
    letters:
    - alphabet: 11
      sprite: {fileID: 21300048, guid: cd9216ed820f4f718377b74c38e4e2fa, type: 3}
    - alphabet: 2
      sprite: {fileID: 21300008, guid: cd9216ed820f4f718377b74c38e4e2fa, type: 3}
    - alphabet: 14
      sprite: {fileID: 21300006, guid: cd9216ed820f4f718377b74c38e4e2fa, type: 3}
    - alphabet: 3
      sprite: {fileID: 21300026, guid: cd9216ed820f4f718377b74c38e4e2fa, type: 3}
