%YAML 1.1
%TAG !u! tag:unity3d.com,2011:
--- !u!1045 &1
EditorBuildSettings:
  m_ObjectHideFlags: 0
  serializedVersion: 2
  m_Scenes:
  - enabled: 1
    path: Assets/WordMaster/Scene/First_Scene.unity
    guid: ef002d5b7ef7afa40b4257cc1aced5f4
  m_configObjects:
    com.unity.adaptiveperformance.loader_settings: {fileID: 11400000, guid: c581202266557a844b86d90cb40fa922,
      type: 2}
    com.unity.adaptiveperformance.samsung.android.provider_settings: {fileID: 11400000,
      guid: a793d7b40d3f6fd49862f590a2ce5261, type: 2}
    com.unity.adaptiveperformance.simulator.provider_settings: {fileID: 11400000,
      guid: edfbdc87698ebff449e98bb0133a5d6c, type: 2}
