%YAML 1.1
%TAG !u! tag:unity3d.com,2011:
--- !u!78 &1
TagManager:
  serializedVersion: 2
  tags:
  - 3 Words
  - 4 Words
  - 7 Words
  - 5 Words
  layers:
  - Default
  - TransparentFX
  - Ignore Raycast
  - 
  - Water
  - UI
  - 
  - 
  - Letter
  - 
  - 
  - 
  - 
  - 
  - 
  - 
  - 
  - 
  - 
  - 
  - 
  - 
  - 
  - 
  - 
  - 
  - 
  - 
  - 
  - 
  - 
  - 
  m_SortingLayers:
  - name: Default
    uniqueID: 0
    locked: 0
  - name: Background
    uniqueID: 2695105651
    locked: 0
  - name: UI Lowest Tier
    uniqueID: 31796363
    locked: 0
  - name: Letter
    uniqueID: 2328438367
    locked: 0
  - name: UI Highest Tier
    uniqueID: 2337639033
    locked: 0
